<?xml version="1.0" encoding="utf-8"?>
<!-- Generator: Adobe Illustrator 18.0.0, SVG Export Plug-In . SVG Version: 6.00 Build 0)  -->
<!DOCTYPE svg PUBLIC "-//W3C//DTD SVG 1.1//EN" "http://www.w3.org/Graphics/SVG/1.1/DTD/svg11.dtd">
<svg version="1.1" id="Ebene_1" xmlns="http://www.w3.org/2000/svg" xmlns:xlink="http://www.w3.org/1999/xlink" x="0px" y="0px"
	 viewBox="0 0 841.9 595.3" enable-background="new 0 0 841.9 595.3" xml:space="preserve">
<g>
	<g>
		<path fill="#FF7264" d="M301.9,305.1c10.5,2.4,17.2-1.9,23-8.1c10.5-12.9,14.9-28.3,13.9-44.6c0-3.8-2.4-7.2-4.3-12.5
			C313.9,258.1,307.1,280.6,301.9,305.1 M726.9,399.5c-17.2-2.9-33.1-2.9-48.4,2.4c-10.1,3.4-13.9,10.1-12.5,20.6
			c1,8.6,4.8,16.3,11.5,22c7.7,6.7,16.8,7.2,24.9,0.5c2.9-2.4,5.3-5.3,7.7-8.1C717.3,425.8,722.6,413.4,726.9,399.5 M608.5,261
			c-1-3.8-1.9-8.1-3.4-12c-4.3-11.5-12.5-12.9-20.6-3.8c-4.3,4.8-8.1,11-10.5,17.2c-10.1,22-14.4,46-15.8,70
			c-0.5,5.3,0.5,11,1.9,16.3c1.4,6.2,5.7,7.2,10.5,2.9c2.9-2.9,5.7-6.7,7.7-10.5c12.5-24,21.1-49.4,29.7-74.7
			C607.6,264.3,608.1,262.4,608.5,261 M414,334.8c0.5,3.4,1,9.1,2.4,13.9c1.4,5.7,5.7,6.7,9.6,2.4c3.4-3.8,6.2-8.1,8.6-12.5
			c12-23,19.6-47.9,28.3-71.9c3.4-9.1,1.4-16.8-2.4-24.4c-3.8-7.7-10.5-9.1-16.8-3.4c-4.8,4.8-8.6,10.5-11.5,16.3
			C420.7,280.2,416.4,306,414,334.8 M453.8,334.3c-1.4,4.3-2.9,8.1-4.8,12.5c-2.4,4.8-4.3,10.1-7.2,14.4
			c-15.3,25.4-36.9,19.2-50.8,3.8c-5.3-5.7-8.1-12.9-12.9-20.6c-2.4,2.9-5.3,6.2-8.1,9.1c-11,12.5-23.5,22-39.8,25.4
			c-26.8,5.7-48.9-4.8-60.9-29.7c-0.5-1.4-1.4-2.9-2.9-5.3c-1.9,2.4-3.4,3.8-4.8,5.7c-3.4,4.8-6.7,9.1-10.5,13.4
			c-11.5,12.9-25.4,17.7-42.2,12c-17.2-6.2-26.8-19.2-27.8-36.9c-0.5-16.8,1-33.5,2.9-49.8c1.4-12.9,3.8-26.4,6.2-39.8
			c-5.7-2.9-12.9-3.4-15.3-10.5c-1.4-4.8-2.9-9.1,0.5-14.4c3.8,0,7.7,0,12,0c8.1-0.5,8.1-0.5,10.5-8.1c3.4-12,6.2-24.4,10.1-36.4
			c7.7-20.6,7.7-17.2,25.4-12.9c8.6,1.9,10.1,3.4,16.8,9.6c-4.3,13.4-8.1,26.8-12.9,42.2c4.8-0.5,8.1-0.5,11.5-0.5
			c10.5-1,15.3,2.4,16.3,13.4c0.5,3.8-0.5,8.1-0.5,13.4h-33.1c-1.4,4.3-2.9,7.2-3.4,10.5c-3.8,21.6-8.1,42.6-11,64.2
			c-1.4,8.6-0.5,17.7,1,26.4c1.9,11,9.6,14.4,17.7,7.7c14.4-11.5,26.8-24.9,27.8-45.5c1.4-24.4,9.1-47.4,22.5-68
			c1-1.9,2.4-3.4,3.4-4.8c9.6-12.5,21.1-20.1,37.4-14.9c14.4-11,26.8-7.7,34.5,8.6c5.3,11,4.8,22.5,2.9,34c-1.9,12-6.2,23.5-12.9,34
			c-13.4,21.1-25.9,26.8-50.3,22.5c-1.4,12.9,1,24.4,10.5,33.5c8.1,7.7,18.2,8.1,28.7,3.4c17.2-8.1,28.3-22.5,36.4-38.8
			c2.9-5.7,1.9-13.4,3.4-20.1c2.9-18.2,7.7-35.9,16.8-52.2c4.8-8.1,10.5-15.8,17.7-22.5c9.6-9.1,22-11.5,34-6.7
			c10.1,3.8,19.6,9.1,28.7,14.9c9.1,5.7,16.3,13.9,12,25.9c4.3,3.8,8.1,6.7,11.5,9.6c4.3,3.8,5.7,8.6,3.4,14.9
			c-5.7,16.3-10.1,32.6-10.5,49.8c0,3.4,0,6.7,0,10.1c1,6.7,5.3,9.1,10.5,4.3c9.1-7.7,15.8-16.8,16.3-29.2
			c1-21.1,5.3-41.2,14.9-59.9c4.3-8.6,9.6-17.2,15.8-24.9c12-13.4,26.8-18.2,44.1-11c5.7,2.4,11,4.8,18.2,7.7
			c1.9-9.1,3.4-17.7,5.3-25.9c4.3-18.7,8.1-37.4,13.4-55.6c4.3-15.8,7.2-16.3,23-12c6.7,1.9,13.4,3.8,17.7,8.1
			c-7.7,31.6-16.3,61.8-22.5,92.5c-6.2,30.2-10.1,60.4-14.9,90.6c-0.5,4.3-1,9.1,0,13.4c1.4,8.6,6.7,11,13.9,5.7
			c1.9-1.4,3.8-2.9,5.3-4.8c7.7-11,15.3-22,16.8-36.4c1.9-24,6.7-47.9,13.4-70.9c1.4-5.3,3.8-10.1,5.7-15.3c1.9-3.8,4.8-5.7,9.1-4.3
			c11,3.4,21.1,8.1,27.3,15.8c-6.2,24.4-12.5,47.9-17.7,71.4c-1.9,8.1-2.4,16.8-3.4,25.4c-0.5,2.9-0.5,5.7,0,8.1
			c0.5,2.9,1.9,6.7,3.8,7.2c2.4,0.5,5.8-1.4,7.7-3.8c3.4-4.3,6.7-9.6,9.1-14.4c5.7-13.4,11.5-26.8,16.8-40.7
			c5.7-15.3,10.5-30.7,15.8-46.5c10.5-1.9,20.1,1,29.2,5.7c4.3,2.4,6.2,5.7,5.7,11c-2.4,17.2-3.8,34.5-7.2,51.3
			c-4.3,21.1-10.1,41.7-15.3,62.3c-0.5,1.9-1,3.8-0.5,6.2c26.4-27.3,42.6-59.9,56.1-94.4c9.6,1.4,10.5,2.9,8.6,11
			c-9.6,35.5-26.4,67.1-50.8,94.4c-5.3,5.7-12,11-19.2,14.9c-4.8,2.9-8.1,5.7-10.1,10.5c-6.2,14.4-13.4,27.8-23.5,39.3
			c-8.1,9.6-17.7,18.2-30.7,20.6c-3.8,1-8.1,1.4-12,1c-23.5-4.3-40.7-16.8-51.3-37.9c-3.4-6.2-3.8-14.4-3.8-21.6
			c0.5-12.9,7.2-21.6,19.6-25.9c5.3-1.9,10.5-3.4,15.8-3.4c16.8,0,33.5,0.5,49.8,1c3.8,0,8.1,0.5,13.4,1
			c4.3-18.7,8.6-36.4,12.5-54.6c-0.5,0-1-0.5-1.4-0.5c-2.9,5.3-5.3,10.5-8.1,15.8c-2.4,3.8-4.8,7.7-7.7,11
			c-14.9,19.2-40.2,12.5-49.8-1.4c-1.9-2.9-3.8-5.3-6.2-9.1c-10.5,15.8-21.1,31.1-43.6,25.4c-15.3-3.8-24.4-14.4-30.2-35.9
			c-1.9,4.8-2.9,8.1-4.8,11.5c-4.3,8.1-8.1,17.2-13.9,24.4c-9.1,11.5-22,12.9-35,5.7c-10.1-5.7-16.3-14.4-21.1-25.9
			c-2.9,2.9-4.8,5.3-6.7,7.7c-8.1,10.5-18.7,15.8-32.1,12.5c-13.4-2.9-22-12-26.4-24.4c-1-3.4-1.9-6.2-2.9-9.6
			C455.2,334.8,454.7,334.3,453.8,334.3"/>
		<path fill="#FF7264" d="M129.4,224.1c15.8-23.5,16.8-47.9,10.1-74.7c-3.4,1-6.7,1.4-9.1,2.4c-30.2,12.5-52.2,33.5-68.5,61.8
			c-1,1.9-1.9,3.8-2.4,5.7c-4.3,12.5-1,21.1,11,25.4c9.6,3.8,20.1,5.7,30.7,8.6c11.5,2.9,22.5,5.7,32.1,12.5
			c20.6,14.4,24.9,35,22,58c-1.9,15.3-10.1,27.3-22,36.9c-27.3,20.6-58,29.7-92,25.4c-10.1-1.4-18.7-5.3-21.6-17.2
			c-0.5-2.4-3.4-4.8-5.3-7.2c-11-10.5-11.5-19.2-1.4-29.7c7.7-8.6,17.7-13.4,28.7-16.3c2.9-1,6.2,0,9.6,0c0,0.5,0.5,1.4,0.5,1.9
			c-2.9,1.9-5.7,4.3-8.6,6.7c-5.3,4.3-10.5,8.6-14.9,13.9c-5.7,7.2-2.9,13.4,6.2,13.9c10.5,0,21.1-0.5,31.6-2.4
			c14.4-2.4,27.8-6.7,40.2-13.9c6.7-4.3,13.4-9.6,18.2-15.8c8.1-10.5,5.7-20.6-5.3-27.8c-5.7-3.4-12.5-5.7-18.7-8.1
			c-11.5-3.8-23-6.7-34-10.5c-7.2-2.4-14.9-5.3-21.6-8.6c-22.5-11.5-30.2-30.2-23-54.6c2.4-7.2,5.3-13.9,9.1-20.6
			c12-22.5,29.2-40.2,51.3-53.2c11.5-6.7,24.4-12.9,37.9-8.6c15.8,5.3,31.1,12,45.5,19.6c9.6,4.8,12.9,14.4,11.5,25.4
			c-2.9,20.6-11,38.3-25.9,53.2C142.3,234.2,136.1,233.7,129.4,224.1"/>
	</g>
</g>
</svg>
